"VertexlitGeneric"
{
	"$basetexture" "models/cem/toyota_smith/details"
	"$bumpmap" "models/cem/toyota_smith/metal_normal"
	"$normalmapalphaenvmapmask" "1"
	"$surfaceprop" "Metal"
	"$nodecal" "1"
	"$envmap" "models/cem/toyota_smith/metal_env"
	"$envmaptint" "[0.01 0.01 0.01]"

	$phong 					1
	$phongexponent 			75
	$phongboost 			55
//	$phongtint 				"[ .35 .35 .35 ]"
	$phongfresnelranges 	"[0.05 0.5 1]"
}
