"vertexlitgeneric"
{
	"$additive" 1
	"$basetexture" "models/cem/toyota_smith/Glass"
	"$bumpmap" "models/cem/toyota_smith/glass_normal"
	"$model" 1
	"$color2" "[0.24 0.24 0.24]"

	"$nodecal" "1"

	"$phong"     "1"
	"$phongexponent"  "63"
	"$phongboost"   "1"
	"$phongfresnelranges"   "[1 8 4]"
	"$phongtint"	"[ .5 .5 .5 ]"
	"$halflambert" "1"

	"$rimlight" "1"
	"$rimlightexponent" "12"	
	"$rimlightboost" "0.8"

}
