"VertexlitGeneric"
{
	"$basetexture" "models/cem/toyota_smith/wallssmith"
	"$bumpmap" "models/cem/toyota_smith/metal_normal"
	"$surfaceprop" "Metal"
	"$nodecal" "1"
	"$color2" "[1.87 1.87 1.87]"

	$phong 					1
	$phongexponent 			75
	$phongboost 			5
	$phongtint 				"[ .35 .35 .35 ]"
	$phongfresnelranges 	"[0.05 0.5 1]"

}
