"UnlitGeneric"
{
	"$basetexture"			"VGUI/entities/tardis/toyota_2015"
	"$vertexcolor" 			1
	"$vertexalpha" 			1
	"$nolod" 			1
	"Proxies" 
	{ 
	"AnimatedTexture" 
		{ 
		"animatedTextureVar" "$basetexture" 
		"animatedTextureFrameNumVar" "$frame" 
		"animatedTextureFrameRate" "19" 
		} 
	} 
}