"VertexlitGeneric"
{
	"$basetexture" "models/cem/toyota_smith/ceilingmesh"
	"$bumpmap" "models/cem/toyota_smith/ceilingmesh_normal"
	"$nodecal" "1"
	"$surfaceprop" "Carpet"
	"$color2" "[0.35 0.35 0.35]"

	$phong 					1
	$phongexponent 			75
	$phongboost 			3
	$phongtint 				"[ .25 .25 .25 ]"
	$phongfresnelranges 	"[0.05 0.5 1]"
}
