"VertexlitGeneric"
{
	"$basetexture" "models/cem/toyota_smith/lowerfloor"
	"$bumpmap" "models/cem/toyota_smith/floor_normal"
	"$surfaceprop" "Metal"
	"$nodecal" "1"
	"$envmap" "models/cem/toyota_smith/environment"
	"$envmaptint" "[0.1 0.1 0.1]"

	$phong 					1
	$phongexponent 			75
	$phongboost 			55
	$phongtint 				"[ .35 .35 .35 ]"
	$phongfresnelranges 	"[0.05 0.5 1]"

}
