"Refract"
{
 	"$model" 1

 	"$refractamount" ".1"
 	"$bluramount" "0"
	"$REFRACTTINT" "{255 255 255}"
 	"$normalmap" "models/cem/toyota_smith/2013n"
	"$bumpframe" "0"
	
	"Proxies"
	{

		"AnimatedTexture"
		{
			"animatedtexturevar" "$normalmap"
			"animatedtextureframenumvar" "$bumpframe"
			"animatedtextureframerate" 100.00
		}

	}
}
