"VertexlitGeneric"
{
	"$basetexture" "models/cem/toyota_smith/ceiling"
	"$bumpmap" "models/cem/toyota_smith/floor_normal"
	"$nodecal" "1"
	"$surfaceprop" "Carpet"

	$phong 					1
	$phongexponent 			75
	$phongboost 			25
	$phongtint 				"[ .25 .25 .25 ]"
	$phongfresnelranges 	"[0.05 0.5 1]"
}
