"vertexlitgeneric"
{
	"$additive" 1
	"$basetexture" "models/cem/toyota_capaldi/lightbookshelf"
	
	"$model" 1
	"$halflambert" 1
	"$phong" "1"
	"$phongexponent" "30"
	"$phongboost" "0.1"	
	"$phongfresnelranges"	"[ 8 4 8 ]"
	"$nodecal" "1"
}
