"UnlitGeneric"
{
	"$surfaceprop" "Glass"
	"$basetexture" "models/cem/toyota_capaldi/neonorange_outer"
	"$bumpmap" "models/cem/toyota_smith/glass_normal"
	"$nodecal" "1"
	"$model" "1"
	"$color2" "[0.999 0.69 0.49]"
//	"$additive" "1"

	"$envmap" "models/cem/toyota_smith/metal_env"
	"$envmaptint" "[1 0.6 0.25]"

	"$selfillum" 1
	"$selfillummask" "models/cem/toyota_smith/white"
	"$selfillumtint" "[3 0.5 0.5]"
}