"VertexlitGeneric"
{
	"$basetexture" "models/cem/toyota_smith/rails"
	"$bumpmap" "models/cem/toyota_smith/metal_normal"
	"$surfaceprop" "Metal"
	"$nodecal" "1"
	"$envmap" "models/cem/toyota_smith/environment"
	"$envmaptint" "[0.5 0.5 0.5]"

	$phong 					1
	$phongexponent 			15
	$phongboost 			55
//	$phongtint 				"[ .35 .35 .35 ]"
	$phongfresnelranges 	"[0.05 0.5 1]"
}
