"VertexlitGeneric"
{
	"$basetexture" "models/cem/toyota_capaldi/wallscapaldi_lit"
	"$bumpmap" "models/cem/toyota_smith/metal_normal"
	"$surfaceprop" "Metal"
	"$nodecal" "1"
	"$envmap" "models/cem/toyota_smith/environment"
	"$envmaptint" "[0.4 0.4 0.4]"
	"$color2" "[1.87 1.87 1.87]"

	$phong 					1
	$phongexponent 			55
	$phongboost 			15
	$phongtint 				"[ .35 .35 .35 ]"
	$phongfresnelranges 	"[0.05 0.5 1]"

}
