"VertexlitGeneric"
{
	"$basetexture" "models/doctorwho1200/toyota/2013/snow"
	"$bumpmap" "models/doctorwho1200/toyota/2013/n"
	"$normalmap" "models/doctorwho1200/toyota/2013/n"
	"$surfaceprop" "Wood_Solid"
	"$nodecal" "1"
}
