"VertexlitGeneric"
{
	"$basetexture" "models/cem/toyota_smith/catwalklights"
	"$selfillum" 1
	"$selfillummask" "models/cem/toyota_smith/white"
	"$nodecal" "1"
	"$color2" "[0.9 0.85 0.835]"

	"Proxies"
	{
		"AnimatedTexture"
			{
				"animatedTextureVar" "$basetexture"
				"animatedTextureFrameNumVar" "$frame"
				"animatedTextureFrameRate" "10"
			}
	}
}